Data Analytics-IST 707 HW03
…
disease_pred0 <- model_keras0 %>% predict_classes(x_test_tbl)
disease_pred0[1:20]

##  [1] 0 0 1 0 1 0 0 0 1 0 0 1 0 0 0 0 1 0 1 0

disease_prob0<-model_keras0 %>% predict_proba(x_test_tbl)

estimates_keras_tbl0 <- tibble(
  truth = as.factor(y_test_vec) %>% fct_recode(yes = "1", no = "0"),
  estimate = as.factor(disease_pred0) %>% fct_recode(yes = "1", no = "0"),
  class_prob = disease_prob0
)
estimates_keras_tbl0

## # A tibble: 9,278 x 3
##    truth estimate class_prob[,1]
##    <fct> <fct>             <dbl>
##  1 no    no                0.209
##  2 no    no                0.368
##  3 yes   yes               0.557
##  4 no    no                0.302
##  5 yes   yes               0.600
##  6 no    no                0.142
##  7 yes   no                0.466
##  8 no    no                0.461
##  9 yes   yes               0.987
## 10 no    no                0.307
## # ... with 9,268 more rows
…
We can see from the above plot that the accuracy saturates around 73% as the loss continues to drop.

Predicting the Disease:

disease_pred1 <- model_keras1 %>% predict_classes(x_test_tbl)
disease_prob1<-model_keras1 %>% predict_proba(x_test_tbl)

estimates_keras_tbl1 <- tibble(
  truth = as.factor(y_test_vec) %>% fct_recode(yes = "1", no = "0"),
  estimate = as.factor(disease_pred1) %>% fct_recode(yes = "1", no = "0"),
  class_prob = disease_prob1
)
estimates_keras_tbl1

## # A tibble: 9,278 x 3
##    truth estimate class_prob[,1]
##    <fct> <fct>             <dbl>
##  1 no    no                0.169
##  2 no    no                0.316
##  3 yes   yes               0.681
##  4 no    no                0.266
##  5 yes   yes               0.540
##  6 no    no                0.180
##  7 yes   no                0.468
##  8 no    no                0.483
##  9 yes   yes               0.887
## 10 no    no                0.221
## # ... with 9,268 more rows
…
We can see from the above plot that the accuracy saturates around 73% as the loss continues to drop.

Predicting the Disease:

disease_pred2 <- model_keras2 %>% predict_classes(x_test_tbl)
disease_prob2<-model_keras2 %>% predict_proba(x_test_tbl)

estimates_keras_tbl2 <- tibble(
  truth = as.factor(y_test_vec) %>% fct_recode(yes = "1", no = "0"),
  estimate = as.factor(disease_pred2) %>% fct_recode(yes = "1", no = "0"),
  class_prob = disease_prob2
)
estimates_keras_tbl2

## # A tibble: 9,278 x 3
##    truth estimate class_prob[,1]
##    <fct> <fct>             <dbl>
##  1 no    no                0.148
##  2 no    no                0.296
##  3 yes   yes               0.655
##  4 no    no                0.184
##  5 yes   no                0.481
##  6 no    no                0.132
##  7 yes   no                0.389
##  8 no    yes               0.504
##  9 yes   yes               0.789
## 10 no    no                0.209
## # ... with 9,268 more rows
…
